<svg xmlns="http://www.w3.org/2000/svg" width="32" height="32" viewBox="0 0 32 32">
    <g fill="#FFF" fill-rule="evenodd">
        <path d="M0 16C0 7.163 7.163 0 16 0s16 7.163 16 16-7.163 16-16 16S0 24.837 0 16z" opacity=".1"/>
        <path fill-rule="nonzero" d="M20.576 15.981h-2.555v9.865h-3.872v-9.865h-1.841v-3.467h1.841V10.27c0-1.604.723-4.116 3.906-4.116l2.868.012v3.366h-2.08c-.342 0-.822.18-.822.945v2.04h2.893l-.338 3.464z"/>
    </g>
</svg>
