<svg xmlns="http://www.w3.org/2000/svg" width="34" height="36" viewBox="0 0 34 36">
    <g fill="none" fill-rule="evenodd">
        <path d="M-3-5h40.923v40.923H-3z"/>
        <g transform="translate(1.263 .968)">
            <rect width="26.429" height="5.968" x="2.558" y="2.558" fill="#1C8DF7" rx="2.558"/>
            <circle cx="6.394" cy="5.542" r="1.279" fill="#FFF"/>
            <circle cx="10.657" cy="5.542" r="1.279" fill="#FFF"/>
            <rect width="31.545" height="29.84" stroke="#7A92AE" stroke-width="1.615" rx="2.558"/>
            <path fill="#00B083" d="M17.897 22.977l3.394-2.652 8.62 11.032a1.077 1.077 0 0 1-.186 1.512l-1.697 1.326a1.077 1.077 0 0 1-1.512-.186l-8.62-11.032zM15.228 17.813l1.698-1.326a1.077 1.077 0 0 1 1.511.185l1.99 2.546-3.395 2.652-1.99-2.546a1.077 1.077 0 0 1 .186-1.511z"/>
            <g stroke="#7A92AE" stroke-linecap="round" stroke-linejoin="round" stroke-width="1.615">
                <path d="M9.905 17.629l2.857.69M13.747 11.964l1.533 2.51M10.485 24.079l2.508-1.532M20.67 11.331l-.781 2.834M26.03 14.966l-2.556 1.45"/>
            </g>
        </g>
    </g>
</svg>
