<svg xmlns="http://www.w3.org/2000/svg" width="32" height="32" viewBox="0 0 32 32">
    <g fill="#FFF" fill-rule="nonzero">
        <path d="M0 16C0 7.163 7.163 0 16 0s16 7.163 16 16-7.163 16-16 16S0 24.837 0 16z" opacity=".1"/>
        <path d="M25.713 17.376v6.55h-3.798v-6.11c0-1.535-.548-2.583-1.923-2.583-1.049 0-1.672.706-1.947 1.389-.1.244-.126.583-.126.925v6.379H14.12s.051-10.35 0-11.42h3.798v1.618l-.025.037h.025v-.037c.505-.777 1.405-1.887 3.422-1.887 2.499 0 4.372 1.632 4.372 5.14zM10.149 7C8.849 7 8 7.853 8 8.973c0 1.096.825 1.974 2.099 1.974h.025c1.324 0 2.148-.878 2.148-1.974C12.246 7.853 11.448 7 10.149 7zM8.226 23.926h3.796v-11.42H8.226v11.42z"/>
    </g>
</svg>
