<?xml version="1.0" encoding="utf-8"?>
<!-- Generator: Adobe Illustrator 20.1.0, SVG Export Plug-In . SVG Version: 6.00 Build 0)  -->
<svg version="1.1" id="Слой_1" xmlns="http://www.w3.org/2000/svg" xmlns:xlink="http://www.w3.org/1999/xlink" x="0px" y="0px"
	 viewBox="0 0 102.3999939 22.9153938" style="enable-background:new 0 0 102.3999939 22.9153938;" xml:space="preserve">
<style type="text/css">
	.st0{fill:url(#SVGID_1_);}
	.st1{fill:none;stroke:#FC3C3C;stroke-width:0.00508;}
	.st2{fill:url(#SVGID_2_);}
</style>
<g id="Layer_x0020_1">
	
		<linearGradient id="SVGID_1_" gradientUnits="userSpaceOnUse" x1="-202.4021606" y1="266.6378174" x2="-202.4021606" y2="266.7836609" gradientTransform="matrix(157.1342621 0 0 -157.1342621 31851.3886719 41920.8554688)">
		<stop  offset="0" style="stop-color:#FC3C3C"/>
		<stop  offset="1" style="stop-color:#F72A60"/>
	</linearGradient>
	<path class="st0" d="M19.8422871,22.5490799V6.3296819h-3.9641838h-0.1656189h-4.7737389l-2.2693329,8.3224583
		c-0.2928982,1.1143961-0.6873055,2.7674494-0.7247028,3.4877539c-0.0458832-0.7206192-0.4465761-2.3673859-0.7476449-3.4893246
		L4.9623013,6.3296824H0.0000012l5.3281083,16.2247429h5.1986308l5.1857443-15.7225399v15.7171974
		C15.7124844,22.5490818,19.8422871,22.5490818,19.8422871,22.5490799z M17.7775421,0
		c-0.4607182,0.0053426-0.8604679,0.1055942-1.2045918,0.2941554c-0.3384666,0.194218-0.6106234,0.4607176-0.7991838,0.7938422
		c-0.1942177,0.3384672-0.2884989,0.7159038-0.2941561,1.143309c0.0056572,0.4164059,0.0999374,0.7884996,0.2831554,1.1159675
		c0.1885614,0.3328104,0.4494038,0.5936532,0.7881851,0.7878711c0.3384686,0.1888757,0.7382183,0.2888131,1.1932774,0.2941551
		c0.4773731-0.0053425,0.8937798-0.1052794,1.2435608-0.2941551c0.3441238-0.1942177,0.6106243-0.4550607,0.7991848-0.7878711
		c0.1885624-0.3274679,0.2888126-0.6995616,0.2888126-1.1159675c-0.0113144-0.4274052-0.1112518-0.8048418-0.2998142-1.143309
		c-0.1888752-0.3331246-0.4497166-0.5996244-0.7881851-0.7938423C18.6490078,0.1055942,18.2439137,0.0053425,17.7775421,0z
		 M21.4808826,22.5490799h4.096489v-7.9616785c0-0.232873,0.0166569-0.455061,0.038969-0.6715927
		c0.0279694-0.2108736,0.0612812-0.4107485,0.0942802-0.5939674c0.1222515-0.6159668,0.349781-1.1543074,0.677248-1.6150255
		c0.3277817-0.4663744,0.738533-0.8277836,1.2435627-1.0883121c0.504715-0.2605286,1.0879974-0.3884354,1.7429314-0.3937788
		c0.2498436,0,0.4670048,0.014142,0.660593,0.0386553c0.1942196,0.024827,0.3117542,0.0493402,0.4783154,0.082653V6.3296819
		c-0.1634178,0-0.2438717,0.0021996-0.400692,0.0065994c-0.7872429,0.0229416-1.5106907,0.0716534-2.247963,0.4019494
		c-0.5700836,0.2555003-1.1002541,0.6451931-1.5653706,1.1546226c-0.4707737,0.5150857-0.6803894,0.8086133-1.1213093,1.5339446
		h-0.1332493l-0.1332493-3.097116h-3.5634918c0.0333118,0.4827166,0.0609684,0.9934025,0.0776253,1.5207453
		c0.0219975,0.5216861,0.0333118,1.0933404,0.0443115,1.6986213c0.0056572,0.6106243,0.0110016,1.2822161,0.0110016,2.0094328
		C21.4808846,11.5584812,21.4808846,22.5490799,21.4808826,22.5490799z M45.1006737,6.3296819h-4.0961761v9.7913513
		c0,0.2331867-0.0223122,0.4553738-0.0669365,0.6719055c-0.0443115,0.2108746-0.0996246,0.4107475-0.1665649,0.5939674
		c-0.144249,0.3494663-0.3551216,0.6935902-0.6379623,1.0267162c-0.2831573,0.3331242-0.6329384,0.6106224-1.0493431,0.8324966
		c-0.4160919,0.2168446-0.8991241,0.3331261-1.4431229,0.3387833c-0.716217-0.0056572-1.2988701-0.1888771-1.7485886-0.5493412
		c-0.4440613-0.3610954-0.7721596-0.8720951-0.9770622-1.5323734c-0.2049026-0.6599636-0.3051529-1.443121-0.3051529-2.3479004
		V6.3296843h-4.0964909v9.5248508c0,1.3186693,0.1621628,2.4327517,0.4663754,3.3362741
		c0.3038979,0.9032078,0.7272167,1.6319962,1.2542458,2.1816521c0.5276566,0.5436859,1.1326256,0.9377785,1.8042145,1.1822777
		c0.6772499,0.2441864,1.3878136,0.3661251,2.1370277,0.3604679c0.7215614-0.0053444,1.370842-0.0996227,1.9371529-0.2774982
		c0.5663109-0.1832199,1.0600243-0.4160919,1.4877472-0.6992474c0.4217453-0.2884979,0.7768707-0.5939693,1.0713387-0.9214344
		c0.2941589-0.3221245,0.5273438-0.6329346,0.6992493-0.9324341h0.0666237l0.1998711,2.4644928h3.5968056
		c-0.0333138-0.6662502-0.0666237-1.3988094-0.0886269-2.2093086c-0.0276566-0.8048439-0.0446243-1.6876221-0.0446243-2.6530552
		C45.1006737,17.6867218,45.1006737,6.3296852,45.1006737,6.3296819z M45.7735252,21.7495804
		c0.604969,0.3387833,1.33218,0.6162815,2.1759949,0.8328114c0.8434944,0.2165318,1.7652473,0.3274689,2.7529945,0.3328133
		c1.4321213-0.0110016,2.6423683-0.2328739,3.6191177-0.6715927c0.9770584-0.4384041,1.720932-1.037714,2.2203064-1.7982445
		c0.4996872-0.7661877,0.7548714-1.6376534,0.7548714-2.6257133c-0.0110016-0.7938423-0.1719093-1.5040894-0.4883728-2.1150274
		c-0.3108139-0.6159658-0.7881851-1.1543074-1.4211197-1.6206827c-0.6379662-0.4660606-1.4431229-0.8771238-2.4198685-1.2265911
		c-0.6829071-0.2388439-1.2379036-0.4663744-1.6543083-0.6829052c-0.4160919-0.216217-0.7159042-0.4497175-0.8991203-0.6992474
		c-0.1888733-0.2498436-0.2831573-0.5439987-0.2775002-0.8827801c0-0.5106869,0.1942177-0.9157782,0.5826569-1.2265902
		c0.388752-0.3054695,0.9494057-0.4663744,1.6819649-0.4717169c0.4830284,0.0053425,0.9380913,0.0553112,1.3711548,0.1499062
		c0.4327469,0.0999374,0.8271561,0.2218733,1.1766243,0.3607798c0.3554344,0.144249,0.6495934,0.2828417,0.8824654,0.4217491
		l0.7994995-2.8975563c-0.471714-0.2608428-1.0823402-0.4830308-1.8208733-0.6715918
		c-0.7435608-0.188561-1.5650558-0.2831559-2.4754906-0.2941551c-0.9437485,0.005343-1.7929001,0.1332498-2.5424309,0.3940926
		C49.03722,6.612524,48.3935966,6.9733043,47.8605957,7.4340224c-0.5330009,0.4663739-0.9434357,1.0047164-1.2265892,1.620997
		c-0.2831573,0.6159658-0.4220619,1.2822161-0.4274063,2.0037766c-0.0113144,0.6329365,0.1332474,1.243247,0.4384041,1.8262138
		c0.3054695,0.5829687,0.7935295,1.115653,1.4544373,1.609683c0.6602783,0.494031,1.5207443,0.9214354,2.5697708,1.2935286
		c0.6605949,0.2275295,1.1879387,0.455061,1.5820274,0.6769352c0.388752,0.2278442,0.6662521,0.4720306,0.8381538,0.7438736
		c0.1665649,0.2664986,0.2498474,0.5829678,0.2441902,0.9437485c0.0056572,0.5439987-0.2052193,0.9770603-0.621624,1.2988701
		c-0.4217453,0.3274689-1.0823402,0.49403-1.97612,0.4996872c-0.49403-0.0056572-1.0044022-0.0609665-1.5210609-0.1775608
		c-0.5213737-0.1112518-1.0100594-0.2555008-1.4764328-0.4330635c-0.4607201-0.1775608-0.8491516-0.3607788-1.1656227-0.5553112
		l-0.7991867,2.96418H45.7735252z M68.7603836,0.0480824V8.094614h-0.0666275
		c-0.2441864-0.4050927-0.5829697-0.7658725-1.0103683-1.0879979c-0.4327545-0.316154-0.9434357-0.5716543-1.5374069-0.7548728
		c-0.5993118-0.1885614-1.2712173-0.2831564-2.0150909-0.2884989c-0.982399,0-1.9094925,0.1998749-2.7809601,0.5883102
		c-0.8768082,0.3887501-1.6486511,0.9604049-2.319931,1.704278c-0.6772499,0.7492161-1.2045898,1.6539955-1.5876846,2.725337
		c-0.3830948,1.0656853-0.5716553,2.2812757-0.5716553,3.6414299c0.0053444,1.2542458,0.1885605,2.3865557,0.5383415,3.402585
		c0.3551216,1.0157166,0.8434944,1.8871822,1.476429,2.6144009c0.6329384,0.7328739,1.3654976,1.2932148,2.198307,1.6816502
		c0.8378372,0.3944054,1.7429352,0.588625,2.7143364,0.5939655c0.7935257-0.0053425,1.5264053-0.1219349,2.208992-0.360466
		c0.6829071-0.2388439,1.2825317-0.5719681,1.8095627-1.0103741c0.5276566-0.4384041,0.9494019-0.9547462,1.2768707-1.5600281
		h0.0666199l0.1665649,2.5647449h3.6634293c-0.022316-0.3720951-0.0443115-0.8051567-0.0666275-1.3045292
		c-0.016655-0.49403-0.0333099-1.0213737-0.0443039-1.5820274c-0.0166626-0.5549984-0.022316-1.115654-0.022316-1.6763096V0.04808
		C72.8568649,0.04808,68.760376,0.04808,68.7603836,0.0480824z M68.7603836,15.5217218
		c0,0.2165318-0.005661,0.4217482-0.0276566,0.621623c-0.022316,0.1998749-0.0556259,0.3940926-0.1055984,0.5773106
		c-0.1385956,0.5939674-0.3774414,1.1046543-0.7215576,1.5377178c-0.3441238,0.4327469-0.7548752,0.765871-1.2435684,0.9990578
		c-0.4827118,0.2385311-1.0044022,0.3554382-1.5650558,0.3607807c-0.8661194-0.0053444-1.6043396-0.2331886-2.2093048-0.6719074
		c-0.604969-0.4384041-1.0603409-1.0433712-1.3764954-1.8092442c-0.3164711-0.7715282-0.4776878-1.6543083-0.4776878-2.6477118
		c0-0.7605305,0.0892525-1.465435,0.2721558-2.1150274c0.1775665-0.6495934,0.4384079-1.2155905,0.7881851-1.7039642
		c0.349781-0.4830303,0.7771873-0.860467,1.2878723-1.1326237c0.5050316-0.271842,1.0880013-0.4050922,1.7485924-0.4104338
		c0.6216202,0.0053425,1.1766205,0.1385918,1.6649933,0.3937778c0.4830322,0.261157,0.882782,0.6052818,1.2045898,1.0436859
		c0.3164749,0.4330616,0.5383453,0.9214354,0.6605988,1.4597778c0.0333099,0.1665621,0.0609665,0.3444376,0.0776215,0.533
		c0.016655,0.183218,0.022316,0.3607798,0.022316,0.533V15.5217218z M78.4813309,22.5490799V6.3296819H74.351532v16.2193985
		H78.4813309z M76.4165878,0c-0.4607162,0-0.8626633,0.1024515-1.2045898,0.2941554
		c-0.3403473,0.190761-0.6106262,0.4619747-0.7994995,0.7938422c-0.1926422,0.3381529-0.2941513,0.7159038-0.2941513,1.143309
		c0,0.4164059,0.0996246,0.7891283,0.2831573,1.1159675c0.1876144,0.3328104,0.4487686,0.5961673,0.7881851,0.7878711
		c0.3372116,0.1904469,0.7382126,0.2941551,1.1935883,0.2941551c0.4773712,0,0.8956604-0.1021371,1.243248-0.2941551
		c0.3456955-0.1904469,0.609993-0.4560034,0.7991867-0.7878711c0.1873016-0.3277822,0.2935181-0.7005045,0.2888107-1.1159675
		c-0.0050278-0.4267766-0.109993-0.8054701-0.2998123-1.143309c-0.1873093-0.3331246-0.4487762-0.6018242-0.7881851-0.7938423
		C77.2893143,0.1037086,76.8826523,0,76.4165878,0z M94.0187759,15.5883465
		c0.0333099-0.183218,0.0663071-0.4217472,0.0942764-0.716217c0.0220032-0.2941561,0.0389709-0.6326237,0.0389709-1.0157156
		c0-0.7215605-0.0722885-1.4487782-0.2165298-2.1869946c-0.1499023-0.7438736-0.3887558-1.4544344-0.7218781-2.1316833
		c-0.3274765-0.6769342-0.7658768-1.2875586-1.3042145-1.8205576c-0.5440063-0.538342-1.2045898-0.9657469-1.9927826-1.2765589
		c-0.7828445-0.3111258-1.7042847-0.4720311-2.7586517-0.4773741c-1.0380249,0.005343-1.9817734,0.1609058-2.819931,0.4773741
		c-0.8381577,0.3108115-1.5763702,0.7435594-2.214653,1.2988715c-0.6385956,0.5549979-1.1712723,1.1989341-1.5986786,1.9371514
		c-0.4274063,0.7325592-0.749527,1.5267162-0.9660568,2.3758698c-0.216217,0.8548098-0.3274689,1.7316189-0.3274689,2.6363983
		c0.0056534,1.2435608,0.1945267,2.3702135,0.5663071,3.3805857c0.3774414,1.0047169,0.9214401,1.8705254,1.6429977,2.5924034
		c0.7159042,0.7215595,1.5930252,1.2765579,2.6254044,1.6649952c1.032692,0.3887501,2.2093124,0.5829678,3.5248337,0.5883121
		c1.1712723-0.0053444,2.2313004-0.1109371,3.1807098-0.3051548c0.9547424-0.1942177,1.7819061-0.4384041,2.4811478-0.7272167
		l-0.5996323-2.8309307c-0.6049576,0.2331867-1.2708969,0.4164047-1.9981155,0.5439987
		c-0.7215576,0.1222515-1.5543671,0.1888752-2.4978104,0.1888752c-0.6549301,0-1.2768784-0.0779381-1.8595276-0.2444992
		c-0.588623-0.1609039-1.115654-0.4160919-1.5763702-0.7548733c-0.4607239-0.3384666-0.8271561-0.7768707-1.10466-1.3042145
		c-0.2721558-0.532999-0.4274063-1.1602783-0.4550629-1.8928394h10.8573456L94.0187759,15.5883465z M83.1614227,12.724103
		c0.0386505-0.4220629,0.1385956-0.8661242,0.2994919-1.3211851c0.1665649-0.4607172,0.3940887-0.8881235,0.6939011-1.2878733
		c0.2998123-0.3937788,0.6825943-0.7215605,1.13797-0.9710894c0.4550629-0.2498436,0.9990692-0.3777514,1.6319962-0.3830938
		c0.6772537,0.0053425,1.2379074,0.1442499,1.6819611,0.4050922c0.4440613,0.2665005,0.7878723,0.6049671,1.0380249,1.0160303
		c0.249527,0.4104357,0.4217529,0.8378401,0.5160294,1.2875586c0.0999374,0.4553747,0.1389084,0.8714657,0.127594,1.2545595
		C90.2883911,12.724102,83.1614075,12.724102,83.1614227,12.724103z"/>
	<path class="st1" d="M94.1510773,3.9767525c0-2.1671958,1.7573853-3.9245853,3.9245911-3.9245853
		c2.1678162,0,3.925209,1.7573897,3.925209,3.9245853c0,2.1678245-1.7573853,3.9252141-3.925209,3.9252141
		C95.9084702,7.9019666,94.1510773,6.144577,94.1510773,3.9767525z"/>
	
		<linearGradient id="SVGID_2_" gradientUnits="userSpaceOnUse" x1="-202.0756531" y1="266.7436523" x2="-202.0756531" y2="266.7731018" gradientTransform="matrix(157.1342621 0 0 -157.1342621 31851.3886719 41920.8554688)">
		<stop  offset="0" style="stop-color:#FC3C3C"/>
		<stop  offset="1" style="stop-color:#F72A60"/>
	</linearGradient>
	<path class="st2" d="M97.4031219,3.8117616h0.5248337c0.3519821,0,0.6068573-0.0659964,0.765564-0.196732
		c0.1574478-0.1304214,0.2375793-0.3240108,0.2375793-0.5820253c0-0.261157-0.0854797-0.4490898-0.2570724-0.5622263
		c-0.1709671-0.1147082-0.4277267-0.1706479-0.7709045-0.1706479h-0.5V3.8117616z M97.4031219,4.4377847v1.84727h-0.756752
		V1.6609079h1.3064117c0.5971069,0,1.0386581,0.1109368,1.3258972,0.3346959
		c0.2872467,0.2234447,0.4296112,0.5615981,0.4296112,1.0125732c0,0.5757399-0.2988663,0.9858601-0.8981857,1.230047
		l1.3064194,2.0468307h-0.8607864l-1.1062317-1.84727C98.1495056,4.4377847,97.4031143,4.4377847,97.4031219,4.4377847z"/>
</g>
</svg>
