<?xml version="1.0" encoding="UTF-8"?>
<!DOCTYPE svg PUBLIC "-//W3C//DTD SVG 1.1//EN" "http://www.w3.org/Graphics/SVG/1.1/DTD/svg11.dtd">
<!-- Creator: CorelDRAW -->
<svg xmlns="http://www.w3.org/2000/svg" xml:space="preserve" width="4800px" height="900px" style="shape-rendering:geometricPrecision; text-rendering:geometricPrecision; image-rendering:optimizeQuality; fill-rule:evenodd; clip-rule:evenodd"
viewBox="0 0 4800 811.673"
 xmlns:xlink="http://www.w3.org/1999/xlink">
 <defs>
  <style type="text/css">
   <![CDATA[
    .fil0 {fill:#6D3AEC}
   ]]>
  </style>
 </defs>
 <g id="Layer_x0020_1">
  <metadata id="CorelCorpID_0Corel-Layer"/>
  <path class="fil0" d="M329.613 4.12043l-4.11926 4.12043 -4.12043 8.23969 0 32.9611 4.12043 4.12043 4.11926 4.12043 4.12043 4.12043 4.12043 4.11926 226.61 4.12043 28.8407 4.12043 16.4806 4.12043 12.3613 4.12043 12.3601 4.11926 8.23969 4.12043 8.24086 4.12043 8.24086 4.12043 8.23969 4.11926 8.24086 4.12043 8.23969 4.12043 4.12043 4.12043 4.12043 4.12043 8.23969 4.11926 4.12043 4.12043 4.12043 4.12043 4.12043 4.12043 8.23969 4.11926 4.12043 8.24086 4.12043 4.12043 4.12043 4.12043 4.11926 4.11926 4.12043 4.12043 4.12043 4.12043 4.12043 4.12043 4.11926 8.23969 4.12043 4.12043 4.12043 8.24086 4.12043 8.23969 4.12043 4.12043 4.11926 8.23969 4.12043 8.24086 4.12043 12.3601 4.12043 8.24086 4.11926 16.4806 4.12043 12.3601 4.12043 24.7214 0 65.9222 -4.12043 24.7214 -4.12043 16.4806 -4.11926 12.3601 -4.12043 8.24086 -4.12043 12.3601 -4.12043 8.24086 -4.11926 8.23969 -4.12043 8.24086 -4.12043 4.12043 -4.12043 8.23969 -4.12043 4.12043 -4.11926 8.24086 -4.12043 4.11926 -4.12043 4.12043 -4.12043 8.24086 -4.11926 4.12043 -4.12043 4.11926 -4.12043 4.12043 -4.12043 4.12043 -4.12043 4.12043 -4.11926 4.11926 -8.24086 4.12043 -4.12043 4.12043 -4.11926 4.12043 -4.12043 4.12043 -8.24086 4.11926 -8.23969 4.12043 -4.12043 4.12043 -8.24086 4.12043 -8.23969 4.11926 -8.24086 4.12043 -12.3601 4.12043 -8.24086 4.12043 -12.3601 4.12043 -16.4806 4.11926 -24.7214 4.12043 -486.18 4.12043 -8.23969 4.12043 -4.12043 4.11926 -4.12043 4.12043 -4.12043 4.12043 0 32.9611 4.12043 8.24086 4.12043 4.11926 4.12043 4.12043 12.3601 4.12043 457.34 0 32.9611 -4.12043 20.601 -4.12043 16.4806 -4.11926 12.3601 -4.12043 12.3601 -4.12043 8.24086 -4.12043 8.24086 -4.11926 8.23969 -4.12043 12.3601 -4.12043 4.12043 -4.12043 8.24086 -4.12043 8.23969 -4.11926 4.12043 -4.12043 8.24086 -4.12043 4.11926 -4.12043 8.24086 -4.11926 4.12043 -4.12043 4.12043 -4.12043 4.11926 -4.12043 4.12043 -4.11926 8.24086 -4.12043 4.11926 -4.12043 4.12043 -4.12043 4.12043 -4.12043 4.12043 -4.11926 4.12043 -4.12043 4.11926 -4.12043 4.12043 -8.23969 4.12043 -4.12043 4.12043 -4.12043 4.11926 -4.12043 4.12043 -8.23969 4.12043 -4.12043 4.12043 -8.24086 4.12043 -4.11926 4.11926 -8.24086 4.12043 -4.12043 4.12043 -8.23969 4.12043 -8.24086 4.11926 -8.23969 4.12043 -8.24086 4.12043 -12.3601 4.12043 -12.3613 4.12043 -12.3601 4.11926 -16.4806 4.12043 -16.4806 4.12043 -32.9611 0 -57.6825 -4.12043 -28.8418 -4.12043 -20.601 -4.11926 -16.4806 -4.12043 -12.3601 -4.12043 -12.3601 -4.12043 -8.24086 -4.12043 -8.23969 -4.11926 -8.24086 -4.12043 -8.24086 -4.12043 -8.23969 -4.12043 -8.24086 -4.11926 -8.23969 -4.12043 -4.12043 -4.12043 -8.24086 -4.12043 -4.11926 -4.12043 -4.12043 -4.11926 -8.24086 -4.12043 -4.11926 -4.12043 -4.12043 -4.12043 -4.12043 -4.11926 -4.12043 -4.12043 -4.12043 -4.12043 -4.11926 -4.12043 -4.12043 -4.12043 -4.12043 -4.11926 -4.12043 -4.12043 -4.11926 -4.12043 -4.12043 -4.12043 -4.12043 -4.11926 -4.12043 -8.24086 -4.12043 -4.12043 -4.11926 -4.12043 -4.12043 -8.23969 -4.12043 -4.12043 -4.12043 -8.23969 -4.11926 -4.12043 -4.12043 -8.24086 -4.12043 -8.23969 -4.12043 -8.24086 -4.12043 -8.23969 -4.11926 -12.3613 -4.12043 -8.23969 -4.12043 -12.3613 -4.12043 -16.4806 -4.11926 -12.3601 -4.12043 -24.7214 -4.12043 -234.849 0 -8.24086 4.12043zm-135.965 296.652l-4.12043 4.11926 -4.12043 4.12043 -4.12043 4.12043 0 32.9611 4.12043 8.24086 4.12043 4.12043 8.23969 4.11926 8.24086 4.12043 94.7641 0 12.3601 -4.12043 4.12043 -4.11926 4.12043 -4.12043 4.12043 -4.12043 4.11926 -4.12043 0 -32.9611 -4.11926 -4.12043 -4.12043 -4.12043 -4.12043 -4.11926 -4.12043 -4.12043 -115.365 0 -4.11926 4.12043zm-177.168 444.978l-4.12043 4.11926 -4.11926 4.12043 -4.12043 4.12043 -4.12043 4.12043 0 32.9611 4.12043 4.12043 4.12043 4.11926 4.11926 4.12043 4.12043 4.12043 222.489 0 8.24086 -4.12043 4.11926 -4.12043 4.12043 -4.11926 4.12043 -12.3613 0 -20.601 -4.12043 -8.23969 -4.12043 -4.12043 -4.11926 -4.12043 -4.12043 -4.11926 -16.4806 -4.12043 -193.649 0 -16.4806 4.12043zm2084.81 -510.902l-4.12043 4.12043 -4.12043 4.12043 -4.11926 4.12043 0 333.734 4.11926 4.11926 4.12043 4.12043 4.12043 4.12043 206.009 0 8.24086 -4.12043 4.11926 -4.12043 4.12043 -8.23969 0 -20.601 -4.12043 -8.24086 -4.11926 -4.11926 -8.24086 -4.12043 -160.686 0 0 -292.532 -4.12043 -4.12043 -4.12043 -4.12043 -4.12043 -4.12043 -12.3601 -4.12043 -8.24086 0 -12.3601 4.12043zm486.18 -4.12043l-4.12043 4.12043 -4.12043 4.12043 -4.11926 8.24086 -4.12043 94.7629 -4.12043 12.3613 -4.12043 12.3601 -4.12043 8.24086 -4.11926 4.11926 -4.12043 4.12043 -4.12043 4.12043 -4.12043 4.12043 -8.23969 4.12043 -8.24086 4.11926 -8.23969 4.12043 -16.4806 4.12043 -32.9623 0 -12.3601 -4.12043 -12.3601 -4.12043 -8.24086 -4.11926 -4.12043 -4.12043 -8.23969 -4.12043 -4.12043 -4.12043 -4.12043 -8.23969 -4.12043 -4.12043 -4.11926 -8.24086 -4.12043 -12.3601 -4.12043 -16.4806 -4.12043 -86.5232 -4.11926 -4.12043 -4.12043 -4.12043 -4.12043 -4.12043 -12.3601 -4.12043 -8.24086 0 -12.3601 4.12043 -4.12043 4.12043 -4.12043 4.12043 -4.12043 4.12043 -4.11926 8.23969 0 82.4039 4.11926 28.8407 4.12043 12.3601 4.12043 12.3613 4.12043 8.23969 4.12043 8.24086 4.11926 4.12043 4.12043 8.23969 4.12043 4.12043 4.12043 4.12043 4.11926 4.12043 4.12043 4.11926 4.12043 4.12043 8.24086 4.12043 4.11926 4.12043 8.24086 4.11926 8.23969 4.12043 8.24086 4.12043 12.3601 4.12043 20.601 4.12043 4.12043 107.124 4.12043 8.23969 4.12043 4.12043 8.23969 4.12043 28.8418 0 4.11926 -4.12043 4.12043 -4.12043 4.12043 -4.11926 4.12043 -8.24086 0 -103.004 8.23969 0 16.4806 -4.12043 12.3613 -4.12043 8.23969 -4.12043 8.24086 -4.12043 8.23969 -4.11926 4.12043 -4.12043 4.12043 -4.12043 8.23969 -4.12043 4.12043 -4.11926 4.12043 -4.12043 4.12043 -4.12043 4.12043 -8.24086 4.11926 -4.11926 4.12043 -8.24086 4.12043 -8.23969 4.12043 -8.24086 4.11926 -12.3601 4.12043 -16.4806 0 -115.365 -4.12043 -4.12043 -4.11926 -4.12043 -4.12043 -4.12043 -8.24086 -4.11926 -16.4806 0 -12.3601 4.11926zm218.369 0l-16.4806 4.12043 -12.3601 4.12043 -8.24086 4.12043 -8.23969 4.12043 -4.12043 4.11926 -8.24086 4.12043 -4.11926 4.12043 -4.12043 4.12043 -4.12043 4.11926 -4.12043 8.24086 -4.12043 8.24086 -4.11926 8.23969 -4.12043 12.3601 0 45.3224 4.12043 12.3601 4.11926 8.24086 4.12043 8.23969 4.12043 8.24086 4.12043 4.12043 4.12043 4.12043 4.11926 4.11926 4.12043 4.12043 8.24086 4.12043 8.23969 4.12043 8.24086 4.11926 8.23969 4.12043 12.3613 4.12043 8.23969 4.12043 8.24086 4.12043 12.3601 4.11926 12.3601 4.12043 12.3613 4.12043 12.3601 4.12043 8.24086 4.11926 12.3601 4.12043 4.12043 4.12043 4.12043 4.12043 4.11926 4.12043 4.12043 4.11926 4.12043 8.24086 0 24.7214 -4.12043 8.23969 -4.12043 8.24086 -4.11926 4.11926 -8.24086 4.12043 -8.24086 4.12043 -12.3601 4.12043 -41.202 0 -16.4806 -4.12043 -12.3601 -4.12043 -8.24086 -4.12043 -4.11926 -4.11926 -8.24086 -4.12043 -8.24086 -4.12043 -28.8407 0 -8.24086 4.12043 -4.11926 4.12043 -4.12043 8.23969 0 24.7214 4.12043 8.23969 4.11926 4.12043 4.12043 4.12043 8.24086 4.12043 4.12043 4.12043 12.3601 4.11926 8.23969 4.12043 12.3613 4.12043 20.601 4.12043 37.0815 4.11926 16.4806 0 32.9611 -4.11926 16.4806 -4.12043 12.3601 -4.12043 8.24086 -4.12043 4.12043 -4.11926 8.23969 -4.12043 4.12043 -4.12043 4.12043 -4.12043 4.12043 -4.12043 4.11926 -4.11926 4.12043 -4.12043 4.12043 -4.12043 4.12043 -4.12043 4.12043 -8.23969 4.11926 -8.24086 4.12043 -12.3601 0 -57.6825 -4.12043 -12.3601 -4.11926 -8.24086 -4.12043 -8.23969 -4.12043 -4.12043 -4.12043 -4.12043 -4.12043 -4.12043 -4.11926 -4.12043 -4.12043 -4.11926 -8.24086 -4.12043 -4.11926 -4.12043 -8.24086 -4.12043 -8.24086 -4.11926 -12.3601 -4.12043 -8.23969 -4.12043 -8.24086 -4.12043 -12.3601 -4.12043 -12.3613 -4.11926 -12.3601 -4.12043 -16.4806 -4.12043 -8.24086 -4.12043 -12.3601 -4.11926 -4.12043 -4.12043 -8.23969 -4.12043 -4.12043 -4.12043 -4.12043 -8.23969 0 -28.8418 4.12043 -4.12043 4.12043 -4.11926 4.11926 -4.12043 8.24086 -4.12043 16.4806 -4.12043 37.0815 0 16.4806 4.12043 12.3613 4.12043 12.3601 4.12043 12.3601 4.11926 28.8418 0 8.23969 -4.11926 4.12043 -4.12043 4.12043 -8.24086 0 -24.7202 -4.12043 -4.12043 -4.12043 -4.12043 -4.12043 -4.12043 -4.11926 -4.11926 -8.24086 -4.12043 -8.23969 -4.12043 -12.3613 -4.12043 -16.4806 -4.12043 -28.8407 -4.11926 -37.0815 0 -28.8418 4.11926zm-1273.13 160.687l-4.12043 4.12043 -4.12043 4.11926 0 8.24086 -8.23969 0 -4.12043 4.12043 -8.24086 4.11926 -8.23969 4.12043 -119.485 4.12043 0.00116792 -127.952 115.364 4.34701 12.3601 4.11926 8.24086 4.12043 4.12043 4.12043 8.23969 0 0 8.24086 4.12043 4.11926 4.12043 4.12043 4.11926 12.3601 0 37.0815 -4.11926 12.3613zm-210.129 -152.447l-4.12043 8.24086 -4.12043 4.11926 0 333.734 4.12043 8.24086 4.12043 4.12043 8.23969 4.11926 28.8418 0 4.12043 -4.11926 4.11926 -4.12043 4.12043 -4.12043 4.12043 -8.23969 0 -94.7641 127.725 0 12.3613 -4.12043 12.3601 -4.12043 8.23969 -4.12043 4.12043 -4.11926 8.24086 -4.12043 4.12043 -4.12043 4.11926 -4.12043 4.12043 -4.12043 4.12043 -4.11926 4.12043 -4.12043 4.11926 -4.12043 4.12043 -4.12043 4.12043 -8.23969 4.12043 -4.12043 4.12043 -8.24086 4.11926 -12.3601 4.12043 -12.3601 0 -61.803 -4.12043 -12.3601 -4.11926 -12.3613 -4.12043 -8.23969 -4.12043 -4.12043 -4.12043 -8.23969 -4.12043 -4.12043 -4.11926 -4.12043 -4.12043 -4.12043 -4.12043 -4.12043 -4.12043 -4.11926 -4.11926 -4.12043 -4.12043 -4.12043 -8.24086 -4.12043 -4.12043 -4.11926 -8.23969 -4.12043 -12.3601 -4.12043 -12.3613 -4.12043 -173.048 0 -8.23969 4.12043zm2336.14 123.605l4.12043 -16.4806 4.12043 -8.23969 4.12043 -12.3613 4.11926 -4.11926 4.12043 -8.24086 4.12043 -4.12043 8.24086 -4.12043 4.11926 -4.11926 8.24086 -4.12043 8.23969 -4.12043 49.4428 0 12.3601 4.12043 4.12043 4.12043 8.23969 4.11926 4.12043 4.12043 4.12043 4.12043 4.12043 4.12043 4.12043 8.23969 4.11926 8.24086 4.12043 8.23969 4.12043 16.4817 4.12043 65.9222 -165.154 -0.00583961 4.46614 -61.7971zm37.0815 -131.846l-12.3601 4.12043 -8.24086 4.12043 -8.23969 4.12043 -8.24086 4.12043 -4.11926 4.11926 -8.24086 4.12043 -4.12043 4.12043 -4.12043 4.12043 -4.11926 4.11926 -4.12043 4.12043 -4.12043 4.12043 -4.12043 8.24086 -4.11926 4.11926 -4.12043 8.24086 -4.12043 4.12043 -4.12043 12.3601 -4.12043 8.24086 -4.11926 12.3601 -4.12043 20.601 0 226.61 4.12043 8.23969 4.11926 4.12043 4.12043 4.12043 12.3613 4.11926 12.3601 0 8.23969 -4.11926 8.24086 -4.12043 4.12043 -4.12043 4.12043 -8.23969 0 -94.7641 164.807 0 0 90.6436 4.11926 8.23969 4.12043 4.12043 8.24086 4.12043 12.3601 4.12043 4.12043 0 12.3601 -4.12043 8.24086 -4.12043 4.12043 -4.12043 4.11926 -8.23969 0 -222.489 -4.11926 -20.601 -4.12043 -12.3601 -4.12043 -12.3613 -4.12043 -8.23969 -4.12043 -4.12043 -4.11926 -8.24086 -4.12043 -4.11926 -4.12043 -8.24086 -4.12043 -4.12043 -4.11926 -4.12043 -4.12043 -4.11926 -4.12043 -4.12043 -4.12043 -4.12043 -8.23969 -4.12043 -4.12043 -4.11926 -8.24086 -4.12043 -8.23969 -4.12043 -8.24086 -4.12043 -12.3601 -4.12043 -20.601 -4.11926 -37.0815 0 -24.7214 4.11926zm276.052 8.24086l-4.12043 4.12043 -4.12043 4.12043 -4.12043 16.4806 0 309.012 4.12043 12.3601 4.12043 8.24086 8.23969 4.12043 8.24086 4.11926 16.4806 0 8.24086 -4.11926 4.11926 -4.12043 4.12043 -4.12043 4.12043 -4.12043 0.00116792 -296.891 107.123 4.35869 8.24086 4.12043 8.23969 4.12043 8.24086 4.11926 4.12043 4.12043 4.11926 4.12043 4.12043 8.24086 4.12043 8.23969 0 49.4417 -4.12043 8.24086 -4.12043 8.24086 -4.11926 4.11926 -4.12043 4.12043 -4.12043 4.12043 -4.12043 4.12043 -8.23969 4.11926 -16.4806 4.12043 -37.0815 4.12043 -8.24086 4.12043 -4.12043 4.12043 -4.12043 4.11926 -4.11926 4.12043 -4.12043 4.12043 -4.12043 8.23969 0 45.3224 4.12043 8.24086 4.12043 8.23969 4.11926 4.12043 4.12043 4.12043 4.12043 4.11926 4.12043 4.12043 8.23969 4.12043 4.12043 4.12043 8.24086 4.12043 8.23969 4.11926 4.12043 4.12043 8.24086 4.12043 8.23969 4.12043 4.12043 4.11926 8.23969 4.12043 8.24086 4.12043 4.12043 4.12043 8.23969 4.12043 8.24086 4.11926 4.12043 4.12043 8.23969 4.12043 8.24086 4.12043 12.3601 4.11926 8.24086 0 12.3601 -4.11926 4.12043 -4.12043 4.12043 -4.12043 4.11926 -4.12043 0 -32.9611 -4.11926 -4.12043 -4.12043 -4.11926 -4.12043 -4.12043 -4.12043 -4.12043 -8.23969 -4.12043 -8.24086 -4.12043 -8.23969 -4.11926 -4.12043 -4.12043 -8.24086 -4.12043 -8.23969 -4.12043 -4.12043 -4.11926 -8.24086 -4.12043 -8.23969 -4.12043 -4.12043 -4.12043 -8.24086 -4.12043 -8.23969 -4.11926 -4.12043 -4.12043 -8.23969 -4.12043 28.8407 0 12.3601 -4.12043 12.3613 -4.11926 4.11926 -4.12043 8.24086 -4.12043 8.24086 -4.12043 4.11926 -4.12043 4.12043 -4.11926 4.12043 -4.12043 4.12043 -4.12043 4.11926 -4.12043 4.12043 -8.23969 4.12043 -4.12043 4.12043 -8.24086 4.12043 -12.3601 4.11926 -12.3601 4.12043 -24.7214 0 -20.601 -4.12043 -28.8407 -4.11926 -12.3613 -4.12043 -8.23969 -4.12043 -8.24086 -4.12043 -4.11926 -4.12043 -8.24086 -4.11926 -4.12043 -4.12043 -4.12043 -4.12043 -4.11926 -4.12043 -4.12043 -4.11926 -4.12043 -8.24086 -4.12043 -4.12043 -4.11926 -8.23969 -4.12043 -12.3613 -4.12043 -12.3601 -4.12043 -173.048 0 -4.11926 4.12043zm-2261.97 152.447l4.12043 -16.4806 4.12043 -12.3613 4.11926 -8.23969 4.12043 -8.24086 4.12043 -4.12043 4.12043 -8.23969 4.12043 -4.12043 4.11926 -4.12043 4.12043 -4.11926 4.12043 -4.12043 8.23969 -4.12043 4.12043 -4.12043 8.24086 -4.12043 8.23969 -4.11926 8.24086 -4.12043 16.4806 -4.12043 49.4417 0 12.3613 4.12043 12.3601 4.12043 8.24086 4.11926 4.11926 4.12043 8.24086 4.12043 4.12043 4.12043 4.11926 4.12043 4.12043 4.11926 4.12043 4.12043 4.12043 4.12043 4.12043 4.12043 4.11926 4.11926 4.12043 8.24086 4.12043 8.24086 4.12043 8.23969 4.11926 12.3601 0 70.0438 -4.11926 12.3601 -4.12043 8.24086 -4.12043 8.23969 -4.12043 8.24086 -4.11926 4.11926 -4.12043 4.12043 -4.12043 8.24086 -4.12043 4.12043 -8.23969 4.11926 -4.12043 4.12043 -4.12043 4.12043 -8.23969 4.12043 -8.24086 4.11926 -8.24086 4.12043 -16.4806 4.12043 -53.5621 0 -12.3601 -4.12043 -12.3601 -4.12043 -8.24086 -4.11926 -4.12043 -4.12043 -8.23969 -4.12043 -4.12043 -4.12043 -4.12043 -4.11926 -4.12043 -4.12043 -4.11926 -4.12043 -4.12043 -4.12043 -4.12043 -8.23969 -4.12043 -4.12043 -4.12043 -8.24086 -4.11926 -8.23969 -4.12043 -12.3613 -4.12043 -12.3601 0 -49.4417zm74.1631 -160.687l-12.3601 4.12043 -12.3613 4.12043 -8.23969 4.12043 -12.3601 4.12043 -4.12043 4.11926 -8.24086 4.12043 -4.12043 4.12043 -8.23969 4.12043 -4.12043 4.11926 -4.12043 4.12043 -4.11926 4.12043 -4.12043 4.12043 -4.12043 4.12043 -4.12043 4.11926 -4.12043 4.12043 -4.11926 4.12043 -4.12043 4.12043 -4.12043 8.23969 -4.12043 4.12043 -4.11926 8.24086 -4.12043 8.23969 -4.12043 8.24086 -4.12043 8.23969 -4.12043 12.3613 -4.11926 16.4806 0 78.2823 4.11926 16.4817 4.12043 12.3601 4.12043 8.23969 4.12043 8.24086 4.12043 8.24086 4.11926 8.23969 4.12043 4.12043 4.12043 8.23969 4.12043 4.12043 4.11926 4.12043 4.12043 4.12043 4.12043 4.12043 4.12043 4.11926 4.12043 4.12043 4.11926 4.12043 4.12043 4.12043 4.12043 4.11926 8.23969 4.12043 4.12043 4.12043 8.24086 4.12043 8.23969 4.12043 8.24086 4.11926 8.23969 4.12043 12.3613 4.12043 16.4806 4.12043 28.8407 4.11926 20.601 0 32.9611 -4.11926 16.4817 -4.12043 12.3601 -4.12043 8.23969 -4.12043 8.24086 -4.11926 8.24086 -4.12043 4.11926 -4.12043 8.24086 -4.12043 4.12043 -4.12043 8.23969 -4.11926 4.12043 -4.12043 4.12043 -4.12043 4.12043 -4.12043 4.11926 -4.11926 4.12043 -4.12043 4.12043 -4.12043 4.12043 -8.24086 4.11926 -4.11926 4.12043 -4.12043 4.12043 -8.24086 4.12043 -8.23969 4.12043 -8.24086 4.11926 -8.23969 4.12043 -8.24086 4.12043 -16.4806 4.12043 -16.4806 0 -61.803 -4.12043 -20.601 -4.12043 -12.3601 -4.12043 -12.3601 -4.11926 -8.24086 -4.12043 -8.23969 -4.12043 -4.12043 -4.12043 -8.24086 -4.12043 -4.12043 -4.11926 -8.23969 -4.12043 -4.12043 -4.12043 -4.12043 -4.12043 -4.11926 -4.11926 -4.12043 -4.12043 -4.12043 -4.12043 -4.12043 -4.12043 -4.12043 -4.12043 -4.11926 -8.23969 -4.12043 -4.12043 -4.12043 -8.23969 -4.12043 -8.24086 -4.11926 -8.24086 -4.12043 -8.23969 -4.12043 -12.3601 -4.12043 -12.3613 -4.12043 -24.7202 -4.11926 -41.202 0 -24.7214 4.11926zm2632.79 0l-12.3613 4.12043 -8.23969 4.12043 -8.24086 4.12043 -8.23969 4.12043 -8.24086 4.11926 -4.12043 4.12043 -4.12043 4.12043 -4.11926 4.12043 -4.12043 4.11926 -4.12043 4.12043 -4.12043 4.12043 -4.11926 8.24086 -4.12043 4.11926 -4.12043 8.24086 -4.12043 12.3601 -4.12043 12.3613 0 259.571 4.12043 4.11926 4.12043 4.12043 4.12043 4.12043 32.9611 0 4.12043 -4.12043 4.12043 -4.12043 4.11926 -4.11926 4.12043 -226.61 4.12043 -20.601 4.12043 -8.24086 4.11926 -8.23969 4.12043 -8.24086 4.12043 -4.12043 8.24086 -4.11926 4.11926 -4.12043 12.3613 -4.12043 20.601 -4.12043 8.23969 0 24.7214 4.12043 8.23969 4.12043 4.12043 4.12043 8.24086 4.11926 4.12043 8.24086 4.11926 4.12043 4.12043 8.23969 4.12043 8.24086 4.12043 16.4806 4.11926 226.61 4.12043 8.23969 4.12043 4.12043 8.24086 4.12043 28.8407 0 8.24086 -4.12043 4.11926 -8.23969 4.12043 -8.24086 4.12043 -226.61 4.12043 -12.3601 4.11926 -8.24086 4.12043 -8.23969 4.12043 -4.12043 4.12043 -8.24086 4.12043 -4.11926 8.23969 -4.12043 8.24086 -4.12043 12.3601 -4.12043 28.8407 0 16.4817 4.12043 8.23969 4.12043 8.24086 4.12043 4.11926 4.11926 4.12043 4.12043 4.12043 8.24086 4.12043 4.12043 4.12043 12.3601 4.11926 16.4806 4.12043 230.73 4.12043 4.11926 4.12043 4.12043 4.11926 4.12043 32.9623 0 4.11926 -4.12043 4.12043 -4.12043 4.12043 -4.11926 0 -259.571 -4.12043 -12.3613 -4.12043 -12.3601 -4.11926 -8.24086 -4.12043 -4.11926 -4.12043 -8.24086 -4.12043 -4.12043 -4.11926 -4.12043 -4.12043 -4.11926 -4.12043 -4.12043 -4.12043 -4.12043 -4.12043 -4.12043 -8.23969 -4.11926 -4.12043 -4.12043 -8.23969 -4.12043 -8.24086 -4.12043 -12.3601 -4.12043 -24.7214 -4.11926 -37.0815 0 -20.601 4.11926 -12.3601 4.12043 -12.3613 4.12043 -4.11926 4.12043 -8.24086 4.12043 -4.12043 4.11926 -4.11926 4.12043 -4.12043 4.12043 -4.12043 4.12043 -4.12043 4.11926 -4.12043 4.12043 -4.11926 8.24086 -4.12043 0 -4.12043 -8.24086 -4.12043 -4.12043 -4.11926 -4.11926 -4.12043 -4.12043 -4.12043 -4.12043 -4.12043 -4.12043 -4.12043 -4.11926 -8.23969 -4.12043 -4.12043 -4.12043 -12.3601 -4.12043 -12.3613 -4.12043 -24.7202 -4.11926 -24.7214 0 -28.8407 4.11926zm-947.639 0l-4.12043 4.12043 -4.12043 4.12043 -4.12043 8.24086 -4.12043 234.849 -4.11926 16.4806 -4.12043 8.24086 -4.12043 8.23969 -4.12043 4.12043 -4.11926 4.12043 -8.24086 4.11926 -8.24086 4.12043 -8.23969 4.12043 -49.4417 0 -8.24086 -4.12043 -8.24086 -4.12043 -4.11926 -4.11926 -4.12043 -4.12043 -4.12043 -8.24086 -4.12043 -4.11926 -4.11926 -8.24086 -4.12043 -12.3601 -4.12043 -20.601 -4.12043 -218.369 -4.12043 -4.12043 -4.11926 -4.12043 -4.12043 -4.12043 -12.3613 -4.12043 -8.23969 0 -12.3601 4.12043 -4.12043 4.12043 -4.12043 4.12043 -4.12043 4.12043 -4.12043 214.248 -4.11926 24.7214 -4.12043 12.3601 -4.12043 8.24086 -4.12043 4.11926 -4.11926 8.24086 -4.12043 4.12043 -4.12043 4.11926 -8.24086 4.12043 -8.23969 4.12043 -49.4417 0 -12.3613 -4.12043 -8.23969 -4.12043 -4.12043 -4.11926 -4.12043 -4.12043 -4.12043 -4.12043 -4.11926 -8.23969 -4.12043 -8.24086 -4.12043 -12.3601 -4.12043 -234.851 -4.12043 -8.23969 -4.11926 -4.12043 -4.12043 -4.12043 -12.3601 -4.12043 -12.3613 0 -12.3601 4.12043 -4.12043 4.12043 -4.12043 4.12043 -4.11926 8.23969 0 243.09 4.11926 16.4806 4.12043 12.3613 4.12043 8.23969 4.12043 8.24086 4.11926 8.23969 4.12043 4.12043 4.12043 4.12043 4.12043 8.23969 8.23969 4.12043 4.12043 4.12043 4.12043 4.12043 8.23969 4.12043 8.24086 4.11926 8.24086 4.12043 12.3601 4.12043 12.3601 4.12043 65.9234 0 16.4806 -4.12043 12.3601 -4.12043 8.24086 -4.12043 4.11926 -4.11926 8.24086 -4.12043 4.12043 -4.12043 4.12043 -4.12043 4.11926 -4.12043 4.12043 -8.23969 4.12043 -4.12043 4.12043 -4.12043 4.11926 4.12043 4.12043 4.12043 4.12043 4.12043 4.12043 4.11926 4.12043 4.12043 4.11926 4.12043 4.12043 4.12043 4.12043 4.12043 8.24086 4.11926 8.23969 4.12043 8.24086 4.12043 16.4806 4.12043 65.9222 0 16.4806 -4.12043 8.24086 -4.12043 8.23969 -4.12043 8.24086 -4.11926 8.24086 -4.12043 4.11926 -4.12043 8.24086 -4.12043 4.12043 -4.12043 4.11926 -4.11926 4.12043 -4.12043 4.12043 -8.24086 4.12043 -4.11926 4.12043 -8.24086 4.11926 -8.24086 4.12043 -12.3601 4.12043 -16.4806 0 -251.33 -4.12043 -8.24086 -4.12043 -4.12043 -4.11926 -4.12043 -8.24086 -4.11926 -20.601 0 -8.23969 4.11926zm-3399.14 -78.2823l-4.12043 4.12043 -4.11926 4.11926 -4.12043 8.24086 0 24.7214 4.12043 8.23969 4.11926 4.12043 4.12043 4.12043 4.12043 4.11926 12.3601 4.12043 457.34 4.12043 12.3601 4.12043 12.3601 4.11926 8.24086 4.12043 4.12043 4.12043 8.23969 4.12043 4.12043 4.12043 4.12043 4.11926 4.12043 4.12043 4.11926 4.12043 4.12043 4.12043 4.12043 8.23969 4.12043 8.24086 4.12043 8.23969 4.11926 8.24086 4.12043 20.601 0 24.7202 -4.12043 20.601 -4.11926 12.3613 -4.12043 4.11926 -4.12043 8.24086 -4.12043 8.24086 -4.12043 4.11926 -4.11926 4.12043 -4.12043 4.12043 -4.12043 4.12043 -4.12043 4.11926 -4.11926 4.12043 -8.24086 4.12043 -8.24086 4.12043 -8.23969 4.12043 -12.3601 4.11926 -259.572 4.12043 -16.4806 4.12043 -8.23969 4.12043 -4.12043 4.11926 -4.12043 8.24086 0 32.9611 4.12043 4.12043 4.12043 4.12043 4.12043 4.12043 4.11926 4.11926 284.292 0 16.4806 -4.11926 12.3613 -4.12043 12.3601 -4.12043 8.23969 -4.12043 4.12043 -4.12043 8.24086 -4.11926 8.23969 -4.12043 4.12043 -4.12043 4.12043 -4.12043 8.23969 -4.11926 4.12043 -4.12043 4.12043 -4.12043 4.12043 -4.12043 4.12043 -4.12043 4.11926 -8.23969 4.12043 -4.12043 4.12043 -4.12043 4.12043 -8.23969 4.11926 -4.12043 4.12043 -8.24086 4.12043 -8.23969 4.12043 -8.24086 4.12043 -12.3601 4.11926 -16.4806 4.12043 -24.7214 0 -32.9611 -4.12043 -24.7214 -4.11926 -16.4806 -4.12043 -12.3601 -4.12043 -8.24086 -4.12043 -8.23969 -4.12043 -8.24086 -4.11926 -4.12043 -4.12043 -8.23969 -4.12043 -4.12043 -4.12043 -4.12043 -4.11926 -4.11926 -4.12043 -8.24086 -4.12043 -4.12043 -8.24086 -4.11926 -4.11926 -4.12043 -4.12043 -4.12043 -4.12043 -4.12043 -8.23969 -4.12043 -4.12043 -4.11926 -8.24086 -4.12043 -8.23969 -4.12043 -8.24086 -4.12043 -8.23969 -4.11926 -12.3613 -4.12043 -20.601 -4.12043 -473.819 0 -8.24086 4.12043z"/>
 </g>
</svg>
