<?xml version="1.0" encoding="UTF-8"?>
<!DOCTYPE svg PUBLIC "-//W3C//DTD SVG 1.1//EN" "http://www.w3.org/Graphics/SVG/1.1/DTD/svg11.dtd">
<!-- Creator: CorelDRAW -->
<svg xmlns="http://www.w3.org/2000/svg" xml:space="preserve" width="1800px" height="600px" style="shape-rendering:geometricPrecision; text-rendering:geometricPrecision; image-rendering:optimizeQuality; fill-rule:evenodd; clip-rule:evenodd"
viewBox="0 0 22.0416 8.79396"
 xmlns:xlink="http://www.w3.org/1999/xlink">
 <defs>
  <style type="text/css">
   <![CDATA[
    .fil3 {fill:black}
    .fil1 {fill:#2A7FC2}
    .fil0 {fill:#C6C5C5}
    .fil2 {fill:white}
   ]]>
  </style>
 </defs>
 <g id="Layer_x0020_1">
  <metadata id="CorelCorpID_0Corel-Layer"/>
  <g id="_335715712">
   <g>
    <g>
     <g>
      <g>
       <path id="_335716600" class="fil0" d="M4.97491 8.4565l-4.32808 0.337464 -0.646826 -6.53415 0.343986 -0.0269036c0.189553,-0.0148555 0.328282,-0.189816 0.308631,-0.388991l-0.033337 -0.336587c-0.0197683,-0.199437 0.127412,-0.375188 0.326995,-0.390599l2.38752 -0.185576c0.199437,-0.0157327 0.379077,0.134342 0.398729,0.333634l0.0331908 0.336587 0.0359689 0.362467 1.22359 -0.0955077 4.52518 0.0694522 0.451892 5.46692 -0.823425 0.724525 -4.20401 0.327259z"/>
      </g>
     </g>
    </g>
    <g>
     <g>
      <g>
       <polygon id="_335716456" class="fil1" points="6.64513,4.92939e-014 1.24833,2.80762 0.668963,8.79396 6.04363,8.37193 9.06563,8.13462 10.9976,7.98282 11.5765,1.99686 "/>
      </g>
     </g>
    </g>
   </g>
   <g>
    <g>
     <path id="_335716288" class="fil2" d="M4.12268 6.36264l-0.615361 -1.00289 -0.500641 0 0 1.00289 -0.600798 0 0 -2.82219 1.32009 0c0.588019,0 0.947708,0.385043 0.947708,0.909575 0,0.499208 -0.25228,0.765904 -0.556816,0.837813l0.695399 1.07468 -0.68958 0 0 0.000116972zm-0.0623461 -1.91261c0,-0.236722 -0.182126,-0.380715 -0.423059,-0.380715l-0.63045 5.8486e-005 0 0.761518 0.630509 0c0.240875,0.000146215 0.423,-0.143846 0.423,-0.380861z"/>
    </g>
    <g>
     <polygon id="_335716192" class="fil2" points="5.18757,6.36264 5.18757,3.54045 7.18478,3.54045 7.18478,4.06931 5.78836,4.06937 5.78836,4.66599 7.03368,4.66593 7.03368,5.1947 5.78836,5.1947 5.78836,5.83366 7.18478,5.8336 7.18478,6.36246 5.18757,6.36252 "/>
    </g>
    <g>
     <path id="_335716096" class="fil2" d="M7.5192 4.95359c0,-0.892673 0.677093,-1.45969 1.50221,-1.45969 0.588106,0 0.956159,0.296232 1.16767,0.630655l-0.499325 0.270673c-0.126681,-0.198853 -0.367877,-0.36817 -0.668349,-0.36817 -0.512162,0 -0.884368,0.39364 -0.884368,0.926624 0,0.533276 0.372381,0.926741 0.884368,0.926741 0.249677,0 0.486809,-0.110188 0.600769,-0.216018l0 -0.301349 -0.744761 -0.000116972 0 -0.532106 1.34533 5.8486e-005 0 1.05357c-0.287547,0.321439 -0.689463,0.5331 -1.20145,0.5331 -0.825004,0 -1.5021,-0.575327 -1.5021,-1.46396z"/>
    </g>
   </g>
   <g>
    <path id="_335715976" class="fil3" d="M11.6868 6.06293c0,-0.186015 0.156362,-0.342231 0.342582,-0.342231 0.185752,0 0.342114,0.156216 0.342114,0.342231 0,0.185927 -0.156216,0.34226 -0.342114,0.34226 -0.186103,0 -0.342582,-0.156392 -0.342582,-0.34226z"/>
    <path id="_335715904" class="fil3" d="M12.714 4.95143c0,-0.866325 0.654956,-1.45797 1.50017,-1.45797 0.62118,0 0.980489,0.338049 1.17905,0.688702l-0.515496 0.253596c-0.118171,-0.228096 -0.371942,-0.409782 -0.663553,-0.409782 -0.511431,0 -0.882935,0.393055 -0.882935,0.925454 0,0.532515 0.371679,0.925308 0.882935,0.925308 0.291611,0 0.545207,-0.177447 0.663553,-0.409812l0.515496 0.249385c-0.202917,0.350799 -0.557869,0.693089 -1.17905,0.693089 -0.84524,0 -1.50017,-0.591645 -1.50017,-1.45797z"/>
    <path id="_335715832" class="fil3" d="M15.6177 4.95143c0,-0.849422 0.62121,-1.45797 1.47063,-1.45797 0.853399,0 1.4747,0.608547 1.4747,1.45797 0,0.849334 -0.621297,1.45797 -1.4747,1.45797 -0.849422,0 -1.47063,-0.608518 -1.47063,-1.45797zm2.32842 0c0,-0.528158 -0.338049,-0.925454 -0.857903,-0.925454 -0.519853,0 -0.853545,0.397237 -0.853545,0.925454 0,0.523918 0.333663,0.925308 0.853545,0.925308 0.519853,0.000116972 0.857903,-0.40139 0.857903,-0.925308z"/>
    <polygon id="_335715760" class="fil3" points="21.4374,6.35857 21.4374,4.38525 20.643,6.35872 20.3809,6.35872 19.5865,4.38525 19.5865,6.35872 18.9866,6.35872 18.9866,3.54001 19.8274,3.54001 20.512,5.24301 21.1963,3.54001 22.0416,3.54001 22.0416,6.35857 "/>
   </g>
  </g>
 </g>
</svg>
