<?xml version="1.0" encoding="UTF-8"?>
<svg width="462px" height="378px" viewBox="0 0 462 378" version="1.1" xmlns="http://www.w3.org/2000/svg" xmlns:xlink="http://www.w3.org/1999/xlink">
    <!-- Generator: Sketch 53 (72520) - https://sketchapp.com -->
    <title>Tablet</title>
    <desc>Created with Sketch.</desc>
    <defs>
        <linearGradient x1="70.218%" y1="23.693%" x2="33.998%" y2="73.101%" id="linearGradient-1">
            <stop stop-color="#D5D0D1" offset="0%"></stop>
            <stop stop-color="#8C8486" offset="100%"></stop>
        </linearGradient>
        <linearGradient x1="77.326%" y1="18.372%" x2="66.431%" y2="56.6%" id="linearGradient-2">
            <stop stop-color="#A8A7A9" offset="0%"></stop>
            <stop stop-color="#575559" offset="100%"></stop>
        </linearGradient>
        <linearGradient x1="-13.319%" y1="48.538%" x2="50%" y2="51.462%" id="linearGradient-3">
            <stop stop-color="#ACD1EF" offset="0%"></stop>
            <stop stop-color="#73A4D9" offset="100%"></stop>
        </linearGradient>
    </defs>
    <g id="Tablet" stroke="none" stroke-width="1" fill="none" fill-rule="evenodd">
        <g id="Group" transform="translate(2.000000, 0.000000)">
            <g id="img-small-cloud" fill="#FFFFFF">
                <path d="M64,24 L0,24 C2.924,19.657 5.373,17.118 7.348,16.382 C9.323,15.646 12.324,16.155 16.35,17.908 C23.19,5.969 30.313,0 37.723,0 C45.132,0 49.643,5.46 51.255,16.382 C51.977,15.54 52.977,15.772 54.256,17.079 C55.536,18.386 55.883,19.319 55.298,19.879 C56.451,19.101 58.051,19.101 60.098,19.879 C62.146,20.659 63.447,22.033 64,24 Z M98,220 L227,220 C226.318,217.752 224.94,215.94 222.864,214.564 C220.788,213.188 218.428,212.901 215.783,213.704 C215.637,205.42 211.946,200.064 204.708,197.637 C197.47,195.211 191.283,196.076 186.148,200.233 C185.026,198.503 183.303,197.637 180.979,197.637 C178.655,197.637 176.916,198.502 175.761,200.233 C169.256,186.895 161.233,180.495 151.691,181.031 C142.149,181.568 134.771,188.75 129.558,202.577 C126.168,201.014 123.301,201.014 120.955,202.577 C118.609,204.14 117.192,206.425 116.703,209.43 C111.919,209.55 108.214,210.351 105.59,211.834 C102.966,213.317 100.436,216.039 98,220 L98,220 Z" id="Shape"></path>
            </g>
            <g id="img-shark" transform="translate(39.000000, 52.000000)">
                <path d="M49.656,283.04 C64.237,266.718 70.069,253.89 103.996,218.905 L124.611,255.071 C109.131,253.025 65.509,286.017 49.656,283.039 L49.656,283.04 Z" id="Path" fill="#B6ACB7" fill-rule="nonzero"></path>
                <path d="M137.662,0 C183.157,0 215.539,25.669 236.111,46.24 C264.653,47.427 348.175,47.308 420.701,81.667 C348.183,115.224 326.635,112.643 287.477,143.59 C292.946,181.627 292.799,237.256 276.267,309.6 C228.317,314.794 216.292,273.276 136.543,289.378 C117.96,252.209 92.85,225.673 81.353,162.216 C36.412,137.944 16.112,90.948 12.265,85.63 C11.297,82.743 75.451,0 137.662,0 Z" id="Path" fill="url(#linearGradient-1)" fill-rule="nonzero"></path>
                <path d="M137.577,0.086 C183.072,0.086 215.453,25.756 236.025,46.327 C264.568,47.513 348.09,47.394 420.617,81.754 C348.097,115.31 326.55,112.729 287.391,143.676 C292.861,181.713 292.799,230.089 276.267,302.433 C268.42,303.277 258.521,302.901 240.753,302.09 C249.939,280.196 233.533,146.792 182.506,84.08 C159.641,64.922 126.907,81.934 112.807,82.03 C76.435,82.591 38.38,76.894 13.734,82.682 C12.764,79.795 75.367,0.086 137.577,0.086 Z" id="Path" fill="url(#linearGradient-2)" fill-rule="nonzero" opacity="0.33"></path>
                <path d="M116.889,46.458 C119.095,54.694 122.219,58.886 128.764,57.132 C136.772,54.986 130.889,30.246 128.75,28.106 L116.889,46.458 Z" id="Path" fill="#462A33" fill-rule="nonzero"></path>
                <path d="M39.077,93.592 C38.2966081,93.5917532 37.5677906,93.2021557 37.1340733,92.5533869 C36.7003561,91.9046182 36.618929,91.0822248 36.917,90.361 C36.917,88.346 42.771,81.959 48.566,81.907 L48.636,81.907 C49.9000755,81.9439833 50.905626,82.9793836 50.905626,84.244 C50.905626,85.5086164 49.9000755,86.5440167 48.636,86.581 C45.746,86.581 43.324,88.714 41.403,91.484 C41.2847621,92.6800841 40.278914,93.591661 39.077,93.592 L39.077,93.592 Z" id="Path" fill="#402F35" fill-rule="nonzero"></path>
                <path d="M221.275,132.856 C215.085,155.962 206.916,156.76 196.302,153.916 M228.165,145.525 C221.973,168.632 213.805,169.429 203.191,166.585 M235.515,156.677 C229.323,179.783 221.155,180.581 210.541,177.737" id="Shape" stroke="#382E31" stroke-width="2.859"></path>
                <path d="M137.753,15.807 C125.142,27.984 111.04,66.717 99.92,52.337" id="Path" stroke="#382E31" stroke-width="1.858"></path>
                <path d="M89.164,158.116 C92.613,161.826 101.432,162.684 115.379,163.324 C137.864,164.354 168.219,163.194 178.379,151.347 C184.839,145.569 187.071,93.072 156.258,89.345 C123.27,86.176 121.593,150.847 89.164,158.115 L89.164,158.116 Z" id="Path" stroke="#1F1A17" stroke-width="1.429"></path>
                <path d="M89.164,158.116 C92.613,161.826 101.432,162.684 115.379,163.324 C137.864,164.354 168.219,163.194 178.379,151.347 C184.839,145.569 187.071,93.072 156.258,89.345 C123.27,86.176 121.593,150.847 89.164,158.115 L89.164,158.116 Z" id="Path" fill="#BA1C20" fill-rule="nonzero"></path>
                <path d="M132.961,126.62 L148.925,98.094 L162.537,127.678 C165.923,121.813 168.574,114.304 175.391,102.496 C171.311,95.576 165.165,90.422 156.258,89.345 C142.341,88.008 133.997,98.745 126.566,112.153 L132.961,126.619 L132.961,126.62 Z M89.164,158.116 C92.613,161.826 101.432,162.684 115.379,163.324 C137.864,164.354 168.219,163.194 178.379,151.347 C180.019,149.879 181.389,145.397 182.011,139.467 L178.925,132.897 L163.221,159.75 L149.549,131.558 L134.417,160.562 L120.755,131.058 L105.422,159.174 C104.232,156.538 103.632,157.734 101.611,151.637 C97.991,154.763 93.906,157.053 89.164,158.116 L89.164,158.116 Z" id="Shape" fill="#F7F7F9" fill-rule="nonzero"></path>
                <path d="M89.164,158.116 C92.613,161.826 101.432,162.684 115.379,163.324 C137.864,164.354 168.219,163.194 178.379,151.347 C184.839,145.569 187.071,93.072 156.258,89.345 C123.27,86.176 121.593,150.847 89.164,158.115 L89.164,158.116 Z" id="Path" stroke="#761013" stroke-width="1.429"></path>
                <path d="M250.914,170.806 C247.816,165.67 241.023,168.213 239.14,168.538 C230.298,173.456 218.779,202.348 163.893,215.705 C197.408,231.329 216.121,224.752 247.48,224.092 C265.993,224.775 264.75,217.724 262.763,211.046 C253.506,192.502 257.795,182.212 250.914,170.806 Z" id="Path" fill="#797076" fill-rule="nonzero"></path>
                <polygon id="Path" fill="#FFFFFF" fill-rule="nonzero" points="83.407 310.8 89.164 294.23 126.566 270.94 147.973 247.21 160.873 261.66 191.901 286.97 221.275 298.165 257.732 298.165 285.122 290.245 289.621 325.233"></polygon>
                <path d="M1.78203651,278.398999 C19.5940365,289.470999 37.5370365,295.007999 55.6100365,295.007999 C86.8510365,295.007999 118.308037,278.464999 149.980037,245.379999 C176.290037,281.798999 206.387037,301.442999 240.268037,304.311999 C274.148037,307.181999 302.665037,293.002999 325.816037,261.775999 C334.099037,270.890999 341.687037,278.650999 348.582037,285.054999" id="Path" stroke="url(#linearGradient-3)" stroke-width="7.2" stroke-linecap="round" stroke-linejoin="round" transform="translate(175.182037, 275.027173) rotate(-4.000000) translate(-175.182037, -275.027173) "></path>
            </g>
        </g>
    </g>
</svg>